{
  "variables": {
    "user": "soeren",
    "password:": "soeren",
    "disk_size": "5000",
    "url": "~/dls/CentOS-Stream-8-x86_64-20191219-dvd1.iso",
    "checksum": "15aafc41f1d1cf09eb4cc070c7e0bf7d461668475bd9797fb00f98f99a24e8f5",
    "shutdown_command": "sudo -S shutdown -P now",
    "headless": "true"
  },
  "provisioners": [
  ],
  "post-processors": [
  ],
  "builders": [
    {
      "name": "centos-8-stream",
      "type": "qemu",
      "format": "qcow2",
      "accelerator": "kvm",
      "disk_size": "{{user `disk_size`}}",
      "cpus": 2,
      "memory": 1024,

      "iso_url": "{{user `url`}}",
      "iso_checksum": "{{user `checksum`}}",
      "iso_checksum_type": "sha256",
      
      "ssh_username": "soeren",
      "ssh_password": "soeren",
      "ssh_wait_timeout": "15m",

      "boot_wait": "2s",
      "boot_command": [
        "<tab> text ks=http://{{ .HTTPIP }}:{{ .HTTPPort }}/ks.cfg<enter><wait>"
      ],
      
      "headless": "{{user `headless`}}",
      "http_directory": "http",
      "shutdown_command": "{{user `shutdown_command`}}"
    }
  ]
}
